^E:\PROJECTS\FUNCODE\TREEEFFECT\TREEEFFECT\MAIN.CPP|E:\PROJECTS\FUNCODE\TREEEFFECT\TREEEFFECT\PIXEL.CPP|E:\PROJECTS\FUNCODE\TREEEFFECT\TREEEFFECT\PIXELMATRIX.CPP
E:\PROJECTS\FUNCODE\TREEEFFECT\TREEEFFECT\DEBUG\VC141.PDB
E:\PROJECTS\FUNCODE\TREEEFFECT\TREEEFFECT\DEBUG\VC141.IDB
E:\PROJECTS\FUNCODE\TREEEFFECT\TREEEFFECT\DEBUG\MAIN.OBJ
E:\PROJECTS\FUNCODE\TREEEFFECT\TREEEFFECT\DEBUG\PIXEL.OBJ
E:\PROJECTS\FUNCODE\TREEEFFECT\TREEEFFECT\DEBUG\PIXELMATRIX.OBJ
^E:\PROJECTS\FUNCODE\TREEEFFECT\TREEEFFECT\MAIN.CPP
E:\PROJECTS\FUNCODE\TREEEFFECT\TREEEFFECT\DEBUG\VC141.PDB
E:\PROJECTS\FUNCODE\TREEEFFECT\TREEEFFECT\DEBUG\VC141.IDB
^E:\PROJECTS\FUNCODE\TREEEFFECT\TREEEFFECT\PIXEL.CPP
E:\PROJECTS\FUNCODE\TREEEFFECT\TREEEFFECT\DEBUG\VC141.PDB
^E:\PROJECTS\FUNCODE\TREEEFFECT\TREEEFFECT\PIXELMATRIX.CPP
E:\PROJECTS\FUNCODE\TREEEFFECT\TREEEFFECT\DEBUG\VC141.PDB
E:\PROJECTS\FUNCODE\TREEEFFECT\TREEEFFECT\DEBUG\VC141.IDB
E:\PROJECTS\FUNCODE\TREEEFFECT\TREEEFFECT\DEBUG\PIXELMATRIX.OBJ
^E:\PROJECTS\FUNCODE\TREEEFFECT\TREEEFFECT\MAIN.CPP|E:\PROJECTS\FUNCODE\TREEEFFECT\TREEEFFECT\PIXELMATRIX.CPP
E:\PROJECTS\FUNCODE\TREEEFFECT\TREEEFFECT\DEBUG\VC141.PDB
E:\PROJECTS\FUNCODE\TREEEFFECT\TREEEFFECT\DEBUG\VC141.IDB
E:\PROJECTS\FUNCODE\TREEEFFECT\TREEEFFECT\DEBUG\PIXELMATRIX.OBJ
E:\PROJECTS\FUNCODE\TREEEFFECT\TREEEFFECT\DEBUG\MAIN.OBJ
