^E:\PROJECTS\FUNCODE\TREEEFFECT\TREEEFFECT\DEBUG\MAIN.OBJ|E:\PROJECTS\FUNCODE\TREEEFFECT\TREEEFFECT\DEBUG\PIXEL.OBJ|E:\PROJECTS\FUNCODE\TREEEFFECT\TREEEFFECT\DEBUG\PIXELMATRIX.OBJ
E:\PROJECTS\FUNCODE\TREEEFFECT\DEBUG\TREEEFFECT.EXE
E:\PROJECTS\FUNCODE\TREEEFFECT\DEBUG\TREEEFFECT.ILK
E:\PROJECTS\FUNCODE\TREEEFFECT\DEBUG\TREEEFFECT.PDB
